{"failedCount":1,"prefixedPath":"src\/test\/java\/resources\/getAPI.feature","packageQualifiedName":"src.test.java.resources.getAPI","loopIndex":-1,"relativePath":"src\/test\/java\/resources\/getAPI.feature","scenarioResults":[{"sectionIndex":1,"stepResults":[{"result":{"nanos":217787700,"millis":217.7877,"status":"passed"},"step":{"background":true,"line":3,"prefix":"*","index":0,"text":"url 'https:\/\/reqres.in\/api'"}},{"result":{"nanos":22843000,"millis":22.843,"status":"passed"},"step":{"background":true,"line":4,"prefix":"*","index":1,"text":"headers Accept = 'application\/json'"},"stepLog":"15:58:04.311 did not evaluate to map Accept = 'application\/json': [type: STRING, value: application\/json]\n"},{"result":{"nanos":1042100,"millis":1.0421,"status":"passed"},"step":{"line":13,"prefix":"Given","index":0,"text":"path '\/users?page=2'"}},{"result":{"nanos":1914596400,"millis":1914.5964,"status":"passed"},"step":{"line":14,"prefix":"When","index":1,"text":"method GET"},"stepLog":"15:58:05.825 request:\n1 > GET https:\/\/reqres.in\/api\/users%3Fpage=2\n1 > Host: reqres.in\n1 > Connection: Keep-Alive\n1 > User-Agent: Apache-HttpClient\/4.5.13 (Java\/1.8.0_121)\n1 > Accept-Encoding: gzip,deflate\n\n\n15:58:06.153 response time in milliseconds: 322\n1 < 200\n1 < Date: Sat, 10 Jun 2023 14:57:49 GMT\n1 < Content-Type: application\/json; charset=utf-8\n1 < Transfer-Encoding: chunked\n1 < Connection: keep-alive\n1 < X-Powered-By: Express\n1 < Access-Control-Allow-Origin: *\n1 < Etag: W\/\"2c1-N6Rqerxquq2kgQhL51EiSg4x0R8\"\n1 < Via: 1.1 vegur\n1 < Cache-Control: max-age=14400\n1 < CF-Cache-Status: HIT\n1 < Age: 373\n1 < Report-To: {\"endpoints\":[{\"url\":\"https:\\\/\\\/a.nel.cloudflare.com\\\/report\\\/v3?s=u4IGqwAZOFyn722lyazdCoLwEhMLwmKmMCFTCFZ%2FONbMyxJVovmVibjsCNITgjsjgtVI5j4mQhys%2FoF94QDeMWlrkebMzGiBEuyrCvaq2Vr1RMPIDcj6Aao6oQ%3D%3D\"}],\"group\":\"cf-nel\",\"max_age\":604800}\n1 < NEL: {\"success_fraction\":0,\"report_to\":\"cf-nel\",\"max_age\":604800}\n1 < Vary: Accept-Encoding\n1 < Server: cloudflare\n1 < CF-RAY: 7d52780a4a37dce3-LHR\n{\"page\":1,\"per_page\":6,\"total\":12,\"total_pages\":2,\"data\":[{\"id\":1,\"name\":\"cerulean\",\"year\":2000,\"color\":\"#98B2D1\",\"pantone_value\":\"15-4020\"},{\"id\":2,\"name\":\"fuchsia rose\",\"year\":2001,\"color\":\"#C74375\",\"pantone_value\":\"17-2031\"},{\"id\":3,\"name\":\"true red\",\"year\":2002,\"color\":\"#BF1932\",\"pantone_value\":\"19-1664\"},{\"id\":4,\"name\":\"aqua sky\",\"year\":2003,\"color\":\"#7BC4C4\",\"pantone_value\":\"14-4811\"},{\"id\":5,\"name\":\"tigerlily\",\"year\":2004,\"color\":\"#E2583E\",\"pantone_value\":\"17-1456\"},{\"id\":6,\"name\":\"blue turquoise\",\"year\":2005,\"color\":\"#53B0AE\",\"pantone_value\":\"15-5217\"}],\"support\":{\"url\":\"https:\/\/reqres.in\/#support-heading\",\"text\":\"To keep ReqRes free, contributions towards server costs are appreciated!\"}}\n\n"},{"result":{"nanos":18700,"millis":0.0187,"status":"passed"},"step":{"line":15,"prefix":"Then","index":2,"text":"status 200"}},{"result":{"nanos":1009500,"errorMessage":"syntax error, expected '==' for match\nsrc\/test\/java\/resources\/getAPI.feature:16","millis":1.0095,"status":"failed"},"step":{"line":16,"prefix":"And","index":3,"text":"match response.data[0].name=='cerulean'"},"stepLog":"15:58:06.229 src\/test\/java\/resources\/getAPI.feature:16\nAnd match response.data[0].name=='cerulean'\nsyntax error, expected '==' for match\nsrc\/test\/java\/resources\/getAPI.feature:16\n"}],"line":12,"description":"","durationMillis":2157.2974,"failed":true,"error":"syntax error, expected '==' for match\nsrc\/test\/java\/resources\/getAPI.feature:16","executorName":"main","name":"Get demo2","startTime":1686412684037,"refId":"[2:12]","endTime":1686412686229,"exampleIndex":-1}],"callDepth":0,"name":"Get API demo","description":"","resultDate":"2023-06-10 03:58:06 PM","durationMillis":2157.2974,"passedCount":0}